{
	"info": {
		"_postman_id": "a01d367f-0b4c-4b1d-b233-4d9b6e5e8a63",
		"name": "Tamanna Challenge",
		"schema": "https://schema.getpostman.com/json/collection/v2.1.0/collection.json"
	},
	"item": [
		{
			"name": "Candiadte",
			"item": [
				{
					"name": "Register Candidate",
					"request": {
						"method": "POST",
						"header": [],
						"body": {
							"mode": "raw",
							"raw": "{\n    \"name\": \"Testador 1\",\n    \"slots\":[\n        {\n            \"start\": \"2021-08-31T07:00:00\",\n            \"end\": \"2021-08-31T17:00:00\"\n        }\n    ]\n}",
							"options": {
								"raw": {
									"language": "json"
								}
							}
						},
						"url": {
							"raw": "http://localhost:8888/api/candidates",
							"protocol": "http",
							"host": [
								"localhost"
							],
							"port": "8888",
							"path": [
								"api",
								"candidates"
							]
						}
					},
					"response": []
				},
				{
					"name": "Find Candidate By name",
					"request": {
						"method": "GET",
						"header": [
							{
								"key": "Content-Type",
								"value": "application/json",
								"type": "text"
							}
						],
						"url": {
							"raw": "http://localhost:8888/api/candidates/Testador 1",
							"protocol": "http",
							"host": [
								"localhost"
							],
							"port": "8888",
							"path": [
								"api",
								"candidates",
								"Testador 1"
							]
						}
					},
					"response": []
				},
				{
					"name": "Find all Candidates",
					"request": {
						"method": "GET",
						"header": [
							{
								"key": "Content-Type",
								"value": "application/json",
								"type": "text"
							}
						],
						"url": {
							"raw": "http://localhost:8888/api/candidates",
							"protocol": "http",
							"host": [
								"localhost"
							],
							"port": "8888",
							"path": [
								"api",
								"candidates"
							]
						}
					},
					"response": []
				}
			]
		},
		{
			"name": "Interviewer",
			"item": [
				{
					"name": "Register Interviewer",
					"request": {
						"method": "POST",
						"header": [],
						"body": {
							"mode": "raw",
							"raw": "{\n    \"name\": \"Testador 1\",\n    \"slots\":[\n        {\n            \"start\": \"2021-08-31T07:00:00\",\n            \"end\": \"2021-08-31T17:00:00\"\n        },\n        {\n            \"start\": \"2021-09-01T14:00:00\",\n            \"end\": \"2021-09-01T17:00:00\"\n        }\n    ]\n}",
							"options": {
								"raw": {
									"language": "json"
								}
							}
						},
						"url": {
							"raw": "http://localhost:8888/api/interviewers",
							"protocol": "http",
							"host": [
								"localhost"
							],
							"port": "8888",
							"path": [
								"api",
								"interviewers"
							]
						}
					},
					"response": []
				},
				{
					"name": "Find all interviewers",
					"request": {
						"method": "GET",
						"header": [
							{
								"key": "Content-Type",
								"value": "application/json",
								"type": "text"
							}
						],
						"url": {
							"raw": "http://localhost:8888/api/interviewers",
							"protocol": "http",
							"host": [
								"localhost"
							],
							"port": "8888",
							"path": [
								"api",
								"interviewers"
							]
						}
					},
					"response": []
				},
				{
					"name": "Find interviewer by nam",
					"request": {
						"method": "GET",
						"header": [
							{
								"key": "Content-Type",
								"value": "application/json",
								"type": "text"
							}
						],
						"url": {
							"raw": "http://localhost:8888/api/interviewers/Testador 1",
							"protocol": "http",
							"host": [
								"localhost"
							],
							"port": "8888",
							"path": [
								"api",
								"interviewers",
								"Testador 1"
							]
						}
					},
					"response": []
				}
			]
		},
		{
			"name": "Interview",
			"item": [
				{
					"name": "Register Interview",
					"request": {
						"method": "POST",
						"header": [],
						"body": {
							"mode": "raw",
							"raw": "{\n    \"candidate\": \"Testador 1\",\n    \"interviewer\": \"Testador 1\",\n    \"slot\": {\n            \"start\": \"2021-08-31T08:00:00\",\n            \"end\": \"2021-08-31T09:00:00\"\n        }\n}",
							"options": {
								"raw": {
									"language": "json"
								}
							}
						},
						"url": {
							"raw": "http://localhost:8888/api/interviews",
							"protocol": "http",
							"host": [
								"localhost"
							],
							"port": "8888",
							"path": [
								"api",
								"interviews"
							]
						}
					},
					"response": []
				},
				{
					"name": "Interviews by candidate",
					"request": {
						"method": "GET",
						"header": [
							{
								"key": "Content-Type",
								"value": "application/json",
								"type": "text"
							}
						],
						"url": {
							"raw": "http://localhost:8888/api/interviews/candidate/Testador 1",
							"protocol": "http",
							"host": [
								"localhost"
							],
							"port": "8888",
							"path": [
								"api",
								"interviews",
								"candidate",
								"Testador 1"
							]
						}
					},
					"response": []
				},
				{
					"name": "Interviews by interviewer",
					"request": {
						"method": "GET",
						"header": [
							{
								"key": "Content-Type",
								"value": "application/json",
								"type": "text"
							}
						],
						"url": {
							"raw": "http://localhost:8888/api/interviews/interviewer/Testador 1",
							"protocol": "http",
							"host": [
								"localhost"
							],
							"port": "8888",
							"path": [
								"api",
								"interviews",
								"interviewer",
								"Testador 1"
							]
						}
					},
					"response": []
				}
			]
		}
	]
}