[{
  "_id": {
    "$oid": "61350dffbf85ae3986b62931"
  },
  "name": "Dona",
  "slots": [
    {
      "start": {
        "$date": "2021-08-31T06:00:00Z"
      },
      "end": {
        "$date": "2021-08-31T07:00:00Z"
      },
      "busy": true
    },
    {
      "start": {
        "$date": "2021-08-31T07:00:00Z"
      },
      "end": {
        "$date": "2021-08-31T08:00:00Z"
      },
      "busy": true
    },
    {
      "start": {
        "$date": "2021-08-31T08:00:00Z"
      },
      "end": {
        "$date": "2021-08-31T09:00:00Z"
      },
      "busy": false
    },
    {
      "start": {
        "$date": "2021-08-31T09:00:00Z"
      },
      "end": {
        "$date": "2021-08-31T10:00:00Z"
      },
      "busy": false
    },
    {
      "start": {
        "$date": "2021-08-31T10:00:00Z"
      },
      "end": {
        "$date": "2021-08-31T11:00:00Z"
      },
      "busy": false
    },
    {
      "start": {
        "$date": "2021-08-31T11:00:00Z"
      },
      "end": {
        "$date": "2021-08-31T12:00:00Z"
      },
      "busy": false
    },
    {
      "start": {
        "$date": "2021-08-31T12:00:00Z"
      },
      "end": {
        "$date": "2021-08-31T13:00:00Z"
      },
      "busy": false
    },
    {
      "start": {
        "$date": "2021-08-31T13:00:00Z"
      },
      "end": {
        "$date": "2021-08-31T14:00:00Z"
      },
      "busy": false
    },
    {
      "start": {
        "$date": "2021-08-31T14:00:00Z"
      },
      "end": {
        "$date": "2021-08-31T15:00:00Z"
      },
      "busy": false
    },
    {
      "start": {
        "$date": "2021-08-31T15:00:00Z"
      },
      "end": {
        "$date": "2021-08-31T16:00:00Z"
      },
      "busy": false
    },
    {
      "start": {
        "$date": "2021-09-01T13:00:00Z"
      },
      "end": {
        "$date": "2021-09-01T14:00:00Z"
      },
      "busy": false
    },
    {
      "start": {
        "$date": "2021-09-01T14:00:00Z"
      },
      "end": {
        "$date": "2021-09-01T15:00:00Z"
      },
      "busy": false
    },
    {
      "start": {
        "$date": "2021-09-01T15:00:00Z"
      },
      "end": {
        "$date": "2021-09-01T16:00:00Z"
      },
      "busy": false
    }
  ],
  "_class": "com.dayanfcosta.challenges.calendar.infrastructure.interviewer.InterviewerDocument"
}]